{
  "section": "forms",
  "name": "form",
  "components": [
    {
      "host": "fm",
      "name": "form",
      "html": "form.component.html",
      "scss": "form.component.scss"
    },
    {
      "host": "fi",
      "name": "form-item",
      "html": "item/form-item.component.html",
      "scss": "item/form-item.component.scss"
    },
    {
      "host": "fc",
      "name": "form-control",
      "html": "control/form-control.component.html",
      "scss": "control/form-control.component.scss"
    },
    {
      "host": "fl",
      "name": "form-label",
      "html": "label/form-label.component.html",
      "scss": "label/form-label.component.scss"
    },
    {
      "host": "fg",
      "name": "form-message",
      "html": "message/form-message.component.html",
      "scss": "message/form-message.component.scss"
    }
  ]
}
