{
  "section": "elements",
  "name": "icon",
  "components": [
    {
      "host": "ic",
      "name": "icon",
      "html": "icon.component.html",
      "scss": "icon.component.scss"
    },
    {
      "host": "si",
      "name": "svg-icon",
      "html": "svg/svg-icon.component.html",
      "scss": "svg/svg-icon.component.scss"
    },
    {
      "host": "ai",
      "name": "animated-icon",
      "html": "animated/animated-icon.component.html",
      "scss": "animated/animated-icon.component.scss"
    }
  ]
}
