{
  "section": "other",
  "name": "message",
  "components": [
    {
      "host": "ms",
      "name": "message",
      "html": "message.component.html",
      "scss": "message.component.scss"
    }
  ]
}
