{
  "section": "elements",
  "name": "picture",
  "components": [
    {
      "host": "pi",
      "name": "picture",
      "html": "picture.component.html",
      "scss": "picture.component.scss"
    }
  ]
}
