{
  "section": "forms",
  "name": "image-cropper",
  "components": [
    {
      "host": "ir",
      "name": "image-cropper",
      "html": "image-cropper.component.html",
      "scss": "image-cropper.component.scss"
    }
  ]
}
